project/pd0/verif/scripts/transcript
# vsim -suppress 3839 -c -do "/eecs/home/qmiss01/EECS-4201-project/project/pd0/verif/scripts/run.macro" /eecs/home/qmiss01/EECS-4201-project/project/pd0/work.top 
# Start time: 02:26:49 on Jan 19,2026
# Loading sv_std.std
# Loading /eecs/home/qmiss01/EECS-4201-project/project/pd0/work.top
# Loading /eecs/home/qmiss01/EECS-4201-project/project/pd0/work.clockgen
# Loading /eecs/home/qmiss01/EECS-4201-project/project/pd0/work.design_wrapper
# Loading /eecs/home/qmiss01/EECS-4201-project/project/pd0/work.pd0
# Loading /eecs/home/qmiss01/EECS-4201-project/project/pd0/work.assign_xor
# Loading /eecs/home/qmiss01/EECS-4201-project/project/pd0/work.constants_pkg
# Loading /eecs/home/qmiss01/EECS-4201-project/project/pd0/work.alu_sv_unit
# Loading /eecs/home/qmiss01/EECS-4201-project/project/pd0/work.alu
# Loading /eecs/home/qmiss01/EECS-4201-project/project/pd0/work.reg_rst
# Loading /eecs/home/qmiss01/EECS-4201-project/project/pd0/work.three_stage_pipeline_sv_unit
# Loading /eecs/home/qmiss01/EECS-4201-project/project/pd0/work.three_stage_pipeline
# do /eecs/home/qmiss01/EECS-4201-project/project/pd0/verif/scripts/run.macro
# [ALU] inp1=         9, inp2=1610612736, alusel=01, res=2684354569
# [REG] inp=00000009, out=00000008
# [TSP] op1=         9, op2= 536870913, out=3221225472
# [ALU] inp1=         5, inp2=         3, alusel=00, res=         8
# [REG] inp=0000000a, out=00000009
# [TSP] op1=        10, op2=2147483649, out=3758096384
# [ALU] inp1=        11, inp2=1879048192, alusel=11, res=1879048203
# [REG] inp=0000000b, out=0000000a
# [TSP] op1=        11, op2=2684354561, out=         1
# [ALU] inp1=        12, inp2=3221225472, alusel=00, res=3221225484
# [REG] inp=0000000c, out=0000000b
# [TSP] op1=        12, op2=1073741825, out= 536870913
# [ALU] inp1=        13, inp2=3758096384, alusel=01, res= 536870925
# [REG] inp=0000000d, out=0000000c
# [TSP] op1=        13, op2=1610612737, out=2147483649
# [ALU] inp1=        14, inp2=3489660928, alusel=10, res=         0
# [REG] inp=0000000e, out=0000000d
# [TSP] op1=        14, op2=3221225473, out=2684354561
# [ALU] inp1=        10, inp2=         4, alusel=01, res=         6
# [REG] inp=0000000f, out=0000000e
# [TSP] op1=        15, op2=3758096385, out=1073741825
# [ALU] inp1=        16, inp2=         1, alusel=00, res=        17
# [REG] inp=00000010, out=0000000f
# [TSP] op1=        16, op2=         2, out=1610612737
# [ALU] inp1=        17, inp2= 536870913, alusel=01, res=3758096400
# [REG] inp=00000011, out=00000010
# [TSP] op1=        17, op2= 536870914, out=3221225473
# [ALU] inp1=        18, inp2= 268435457, alusel=10, res=         0
# [REG] inp=00000012, out=00000011
# [TSP] op1=        18, op2=2147483650, out=3758096385
# [ALU] inp1=        19, inp2= 805306369, alusel=11, res= 805306387
# [REG] inp=00000013, out=00000012
# [TSP] op1=        19, op2=2684354562, out=         2
# [ALU] inp1=        20, inp2=2147483649, alusel=00, res=2147483669
# [REG] inp=12345678, out=00000013
# [TSP] op1=        20, op2=1073741826, out= 536870914
# [ALU] inp1=        21, inp2=2684354561, alusel=01, res=1610612756
# [REG] inp=00000015, out=12345678
# [TSP] op1=        21, op2=1610612738, out=2147483650
# [ALU] inp1=        22, inp2=2415919105, alusel=10, res=         0
# [REG] inp=00000016, out=00000015
# [TSP] op1=        22, op2=3221225474, out=2684354562
# [ALU] inp1=        23, inp2=2952790017, alusel=11, res=2952790039
# [REG] inp=00000017, out=00000016
# [TSP] op1=        23, op2=3758096386, out=1073741826
# [ALU] inp1=        24, inp2=1073741825, alusel=00, res=1073741849
# [REG] inp=00000018, out=00000017
# [TSP] op1=        24, op2=         3, out=1610612738
# [ALU] inp1=        25, inp2=1610612737, alusel=01, res=2684354584
# [REG] inp=00000019, out=00000018
# [TSP] op1=        25, op2= 536870915, out=3221225474
# [ALU] inp1=        26, inp2=1342177281, alusel=10, res=         0
# [REG] inp=0000001a, out=00000019
# [TSP] op1=        26, op2=2147483651, out=3758096386
# [ALU] inp1=        27, inp2=1879048193, alusel=11, res=1879048219
# [REG] inp=0000001b, out=0000001a
# [TSP] op1=        27, op2=2684354563, out=         3
# [ALU] inp1=        28, inp2=3221225473, alusel=00, res=3221225501
# [REG] inp=0000001c, out=0000001b
# [TSP] op1=        28, op2=1073741827, out= 536870915
# [ALU] inp1=        29, inp2=3758096385, alusel=01, res= 536870940
# [REG] inp=0000001d, out=0000001c
# [TSP] op1=        29, op2=1610612739, out=2147483651
# [ALU] inp1=        30, inp2=3489660929, alusel=10, res=         0
# [REG] inp=0000001e, out=0000001d
# [TSP] op1=        10, op2=         5, out=2684354563
# [ALU] inp1=        31, inp2=4026531841, alusel=11, res=4026531871
# [REG] inp=0000001f, out=0000001e
# [TSP] op1=        31, op2=3758096387, out=1073741827
# [ALU] inp1=        32, inp2=         2, alusel=00, res=        34
# [REG] inp=00000020, out=0000001f
# [TSP] op1=        32, op2=         4, out=1610612739
# [ALU] inp1=        33, inp2= 536870914, alusel=01, res=3758096415
# [REG] inp=00000021, out=00000020
# [TSP] op1=        33, op2= 536870916, out=         5
# [ALU] inp1=        34, inp2= 268435458, alusel=10, res=         2
# [REG] inp=00000022, out=00000021
# [TSP] op1=        34, op2=2147483652, out=3758096387
# [ALU] inp1=        35, inp2= 805306370, alusel=11, res= 805306403
# [REG] inp=00000023, out=00000022
# [TSP] op1=        35, op2=2684354564, out=         4
# [ALU] inp1=        36, inp2=2147483650, alusel=00, res=2147483686
# [REG] inp=00000024, out=00000023
# [TSP] op1=        36, op2=1073741828, out= 536870916
# [ALU] inp1=        37, inp2=2684354562, alusel=01, res=1610612771
# [REG] inp=00000025, out=00000024
# [TSP] op1=        37, op2=1610612740, out=2147483652
# [ALU] inp1=        38, inp2=2415919106, alusel=10, res=         2
# [REG] inp=00000026, out=00000025
# [TSP] op1=        38, op2=3221225476, out=2684354564
# [ALU] inp1=        39, inp2=2952790018, alusel=11, res=2952790055
# [REG] inp=00000027, out=00000026
# [TSP] op1=        39, op2=3758096388, out=1073741828
# [ALU] inp1=        40, inp2=1073741826, alusel=00, res=1073741866
# [REG] inp=00000028, out=00000027
# [TSP] op1=        40, op2=         5, out=1610612740
# [ALU] inp1=        41, inp2=1610612738, alusel=01, res=2684354599
# [REG] inp=00000029, out=00000028
# [TSP] op1=        41, op2= 536870917, out=3221225476
# [ALU] inp1=        42, inp2=1342177282, alusel=10, res=         2
# [REG] inp=0000002a, out=00000029
# [TSP] op1=        42, op2=2147483653, out=3758096388
# [ALU] inp1=        43, inp2=1879048194, alusel=11, res=1879048235
# [REG] inp=0000002b, out=0000002a
# [TSP] op1=        43, op2=2684354565, out=         5
# [ALU] inp1=        44, inp2=3221225474, alusel=00, res=3221225518
# [REG] inp=0000002c, out=0000002b
# [TSP] op1=        44, op2=1073741829, out= 536870917
# [ALU] inp1=        45, inp2=3758096386, alusel=01, res= 536870955
# [REG] inp=0000002d, out=0000002c
# [TSP] op1=        45, op2=1610612741, out=2147483653
# [ALU] inp1=        46, inp2=3489660930, alusel=10, res=         2
# [REG] inp=0000002e, out=0000002d
# [TSP] op1=        46, op2=3221225477, out=2684354565
# [ALU] inp1=        47, inp2=4026531842, alusel=11, res=4026531887
# [REG] inp=0000002f, out=0000002e
# [TSP] op1=        47, op2=3758096389, out=1073741829
# [ALU] inp1=        48, inp2=         3, alusel=00, res=        51
# [REG] inp=00000030, out=0000002f
# [TSP] op1=        48, op2=         6, out=1610612741
# [PD0] All tests PASSED - No errors encountered
# ** Note: $finish    : /cs/home/qmiss01/EECS-4201-project/project/pd0/verif/tests/test_pd_custom.sv(33)
#    Time: 101 ps  Iteration: 1  Instance: /top
# End time: 02:26:49 on Jan 19,2026, Elapsed time: 0:00:00
# Errors: 0, Warnings: 0
