project/pd5/pd5_test2_func.log
make: Entering directory '/eecs/home/arshia04/EECS-4201-project-arshia04/project/pd5/verif/scripts'
echo Vsim Compilation
Vsim Compilation
mkdir -p /eecs/home/arshia04/EECS-4201-project-arshia04/project/pd5/verif/sim/vsim/test_pd
vlog -work /eecs/home/arshia04/EECS-4201-project-arshia04/project/pd5/work \
	-suppress 7061 \
	-sv \
	+incdir+/eecs/home/arshia04/EECS-4201-project-arshia04/project/pd5/design/code \
	+incdir+/eecs/home/arshia04/EECS-4201-project-arshia04/project/pd5/design/ \
	+incdir+/eecs/home/arshia04/EECS-4201-project-arshia04/project/pd5/verif/tests \
	+define+MEM_PATH=\"/eecs/home/arshia04/EECS-4201-project-arshia04/project/pd5/verif/data/test1.x\" \
	+define+TEST_VECTOR=\"/eecs/home/arshia04/EECS-4201-project-arshia04/project/pd5/verif/data/test_vector.x\" \
	+define+MEM_DEPTH=1048576 \
	+define+GEN_TRACE=0 \
	+define+TRACE_FILE=\"test1.trace\"\
	+define+LINE_COUNT=58 \
	+define+PATTERN_FILE=\"/eecs/home/arshia04/EECS-4201-project-arshia04/project/pd5/verif/data/test1.pattern\" \
	+define+PATTERN_LINE_COUNT=2390 \
	+define+PATTERN_DUMP_FILE=\"test1.dump\" \
	+define+PATTERN_DUMP=0 \
	+define+PATTERN_CHECK=0 \
	+define+VCD_FILE=\"test1.vcd\" \
	+define+TIMEOUT=50000 \
	-stats=none /eecs/home/arshia04/EECS-4201-project-arshia04/project/pd5/design/code/constants.svh /eecs/home/arshia04/EECS-4201-project-arshia04/project/pd5/design/code/memory.sv /eecs/home/arshia04/EECS-4201-project-arshia04/project/pd5/design/code/fetch.sv /eecs/home/arshia04/EECS-4201-project-arshia04/project/pd5/design/code/control.sv /eecs/home/arshia04/EECS-4201-project-arshia04/project/pd5/design/code/branch_control.sv /eecs/home/arshia04/EECS-4201-project-arshia04/project/pd5/design/code/decode.sv /eecs/home/arshia04/EECS-4201-project-arshia04/project/pd5/design/code/igen.sv /eecs/home/arshia04/EECS-4201-project-arshia04/project/pd5/design/code/register_file.sv /eecs/home/arshia04/EECS-4201-project-arshia04/project/pd5/design/code/writeback.sv /eecs/home/arshia04/EECS-4201-project-arshia04/project/pd5/design/code/execute.sv /eecs/home/arshia04/EECS-4201-project-arshia04/project/pd5/design/code/pd5.sv /eecs/home/arshia04/EECS-4201-project-arshia04/project/pd5/verif/tests/clockgen.sv /eecs/home/arshia04/EECS-4201-project-arshia04/project/pd5/design/design_wrapper.sv /eecs/home/arshia04/EECS-4201-project-arshia04/project/pd5/verif/tests/test_pd.sv
Model Technology ModelSim - Intel FPGA Edition vlog 2020.1 Compiler 2020.02 Feb 28 2020
** Warning: /eecs/home/arshia04/EECS-4201-project-arshia04/project/pd5/design/code/constants.svh(10): (vlog-13233) Design unit "constants_svh_unit" already exists and will be overwritten. Design unit compiled with different set of options.
-- Compiling package constants_svh_unit
** Warning: /eecs/home/arshia04/EECS-4201-project-arshia04/project/pd5/design/code/constants.svh(10): (vlog-13233) Design unit "memory_sv_unit" already exists and will be overwritten. Design unit compiled with different set of options.
-- Compiling package memory_sv_unit
-- Compiling module memory
** Warning: /eecs/home/arshia04/EECS-4201-project-arshia04/project/pd5/design/code/constants.svh(10): (vlog-13233) Design unit "fetch_sv_unit" already exists and will be overwritten. Design unit compiled with different set of options.
-- Compiling package fetch_sv_unit
-- Compiling module fetch
** Warning: /eecs/home/arshia04/EECS-4201-project-arshia04/project/pd5/design/code/constants.svh(10): (vlog-13233) Design unit "control_sv_unit" already exists and will be overwritten. Design unit compiled with different set of options.
-- Compiling package control_sv_unit
-- Compiling module control
-- Compiling module branch_control
** Warning: /eecs/home/arshia04/EECS-4201-project-arshia04/project/pd5/design/code/constants.svh(10): (vlog-13233) Design unit "decode_sv_unit" already exists and will be overwritten. Design unit compiled with different set of options.
-- Compiling package decode_sv_unit
-- Compiling module decode
** Warning: /eecs/home/arshia04/EECS-4201-project-arshia04/project/pd5/design/code/constants.svh(10): (vlog-13233) Design unit "igen_sv_unit" already exists and will be overwritten. Design unit compiled with different set of options.
-- Compiling package igen_sv_unit
-- Compiling module igen
-- Compiling module register_file
** Warning: /eecs/home/arshia04/EECS-4201-project-arshia04/project/pd5/design/code/constants.svh(10): (vlog-13233) Design unit "writeback_sv_unit" already exists and will be overwritten. Design unit compiled with different set of options.
-- Compiling package writeback_sv_unit
-- Compiling module writeback
** Warning: /eecs/home/arshia04/EECS-4201-project-arshia04/project/pd5/design/code/constants.svh(10): (vlog-13233) Design unit "execute_sv_unit" already exists and will be overwritten. Design unit compiled with different set of options.
-- Compiling package execute_sv_unit
-- Compiling module execute
** Warning: /eecs/home/arshia04/EECS-4201-project-arshia04/project/pd5/design/code/constants.svh(10): (vlog-13233) Design unit "pd5_sv_unit" already exists and will be overwritten. Design unit compiled with different set of options.
-- Compiling package pd5_sv_unit
-- Compiling module pd5
-- Compiling module clockgen
-- Compiling module design_wrapper
-- Compiling module top

Top level modules:
	top
rm -f /eecs/home/arshia04/EECS-4201-project-arshia04/project/pd5/verif/scripts/run.macro
echo -e "vcd file \"test1.vcd\"\nvcd add -r /top/* \nrun -all" >> /eecs/home/arshia04/EECS-4201-project-arshia04/project/pd5/verif/scripts/run.macro
echo Vsim Run
Vsim Run
vsim -suppress 3839 -c -do /eecs/home/arshia04/EECS-4201-project-arshia04/project/pd5/verif/scripts/run.macro /eecs/home/arshia04/EECS-4201-project-arshia04/project/pd5/work.top
Reading pref.tcl

# 2020.1

# vsim -suppress 3839 -c -do "/eecs/home/arshia04/EECS-4201-project-arshia04/project/pd5/verif/scripts/run.macro" /eecs/home/arshia04/EECS-4201-project-arshia04/project/pd5/work.top 
# Start time: 18:23:14 on Mar 23,2026
# Loading sv_std.std
# Loading /eecs/home/arshia04/EECS-4201-project-arshia04/project/pd5/work.top
# Loading /eecs/home/arshia04/EECS-4201-project-arshia04/project/pd5/work.clockgen
# Loading /eecs/home/arshia04/EECS-4201-project-arshia04/project/pd5/work.design_wrapper
# Loading /eecs/home/arshia04/EECS-4201-project-arshia04/project/pd5/work.pd5_sv_unit
# Loading /eecs/home/arshia04/EECS-4201-project-arshia04/project/pd5/work.pd5
# Loading /eecs/home/arshia04/EECS-4201-project-arshia04/project/pd5/work.fetch_sv_unit
# Loading /eecs/home/arshia04/EECS-4201-project-arshia04/project/pd5/work.fetch
# Loading /eecs/home/arshia04/EECS-4201-project-arshia04/project/pd5/work.memory_sv_unit
# Loading /eecs/home/arshia04/EECS-4201-project-arshia04/project/pd5/work.memory
# Loading /eecs/home/arshia04/EECS-4201-project-arshia04/project/pd5/work.decode_sv_unit
# Loading /eecs/home/arshia04/EECS-4201-project-arshia04/project/pd5/work.decode
# Loading /eecs/home/arshia04/EECS-4201-project-arshia04/project/pd5/work.igen_sv_unit
# Loading /eecs/home/arshia04/EECS-4201-project-arshia04/project/pd5/work.igen
# Loading /eecs/home/arshia04/EECS-4201-project-arshia04/project/pd5/work.control_sv_unit
# Loading /eecs/home/arshia04/EECS-4201-project-arshia04/project/pd5/work.control
# Loading /eecs/home/arshia04/EECS-4201-project-arshia04/project/pd5/work.register_file
# Loading /eecs/home/arshia04/EECS-4201-project-arshia04/project/pd5/work.branch_control
# Loading /eecs/home/arshia04/EECS-4201-project-arshia04/project/pd5/work.execute_sv_unit
# Loading /eecs/home/arshia04/EECS-4201-project-arshia04/project/pd5/work.execute
# Loading /eecs/home/arshia04/EECS-4201-project-arshia04/project/pd5/work.writeback_sv_unit
# Loading /eecs/home/arshia04/EECS-4201-project-arshia04/project/pd5/work.writeback
# do /eecs/home/arshia04/EECS-4201-project-arshia04/project/pd5/verif/scripts/run.macro
# IMEMORY: Loaded 58 32-bit words from /eecs/home/arshia04/EECS-4201-project-arshia04/project/pd5/verif/data/test1.x
# IMEMORY: Loaded 58 32-bit words from /eecs/home/arshia04/EECS-4201-project-arshia04/project/pd5/verif/data/test1.x
# WB: pc=01000000 rd=2 data=010fffe0
# WB: pc=01000008 rd=10 data=0000000a
# WB: pc=0100000c rd=1 data=01000010
# WB: pc=01000030 rd=2 data=010fffc0
# BR: pc=01000048 taken=1 rs1=15=00000001 rs2=14=0000000a target=01000054
# WB: pc=01000040 rd=14 data=0000000a
# WB: pc=01000044 rd=15 data=00000001
# WB: pc=01000054 rd=15 data=0000000a
# WB: pc=01000058 rd=15 data=00000009
# WB: pc=0100005c rd=10 data=00000009
# WB: pc=01000060 rd=1 data=01000064
# WB: pc=01000030 rd=2 data=010fffa0
# BR: pc=01000048 taken=1 rs1=15=00000001 rs2=14=00000009 target=01000054
# WB: pc=01000040 rd=14 data=00000009
# WB: pc=01000044 rd=15 data=00000001
# WB: pc=01000054 rd=15 data=00000009
# WB: pc=01000058 rd=15 data=00000008
# WB: pc=0100005c rd=10 data=00000008
# WB: pc=01000060 rd=1 data=01000064
# WB: pc=01000030 rd=2 data=010fff80
# BR: pc=01000048 taken=1 rs1=15=00000001 rs2=14=00000008 target=01000054
# WB: pc=01000040 rd=14 data=00000008
# WB: pc=01000044 rd=15 data=00000001
# WB: pc=01000054 rd=15 data=00000008
# WB: pc=01000058 rd=15 data=00000007
# WB: pc=0100005c rd=10 data=00000007
# WB: pc=01000060 rd=1 data=01000064
# WB: pc=01000030 rd=2 data=010fff60
# BR: pc=01000048 taken=1 rs1=15=00000001 rs2=14=00000007 target=01000054
# WB: pc=01000040 rd=14 data=00000007
# WB: pc=01000044 rd=15 data=00000001
# WB: pc=01000054 rd=15 data=00000007
# WB: pc=01000058 rd=15 data=00000006
# WB: pc=0100005c rd=10 data=00000006
# WB: pc=01000060 rd=1 data=01000064
# WB: pc=01000030 rd=2 data=010fff40
# BR: pc=01000048 taken=1 rs1=15=00000001 rs2=14=00000006 target=01000054
# WB: pc=01000040 rd=14 data=00000006
# WB: pc=01000044 rd=15 data=00000001
# WB: pc=01000054 rd=15 data=00000006
# WB: pc=01000058 rd=15 data=00000005
# WB: pc=0100005c rd=10 data=00000005
# WB: pc=01000060 rd=1 data=01000064
# WB: pc=01000030 rd=2 data=010fff20
# BR: pc=01000048 taken=1 rs1=15=00000001 rs2=14=00000005 target=01000054
# WB: pc=01000040 rd=14 data=00000005
# WB: pc=01000044 rd=15 data=00000001
# WB: pc=01000054 rd=15 data=00000005
# WB: pc=01000058 rd=15 data=00000004
# WB: pc=0100005c rd=10 data=00000004
# WB: pc=01000060 rd=1 data=01000064
# WB: pc=01000030 rd=2 data=010fff00
# BR: pc=01000048 taken=1 rs1=15=00000001 rs2=14=00000004 target=01000054
# WB: pc=01000040 rd=14 data=00000004
# WB: pc=01000044 rd=15 data=00000001
# WB: pc=01000054 rd=15 data=00000004
# WB: pc=01000058 rd=15 data=00000003
# WB: pc=0100005c rd=10 data=00000003
# WB: pc=01000060 rd=1 data=01000064
# WB: pc=01000030 rd=2 data=010ffee0
# BR: pc=01000048 taken=1 rs1=15=00000001 rs2=14=00000003 target=01000054
# WB: pc=01000040 rd=14 data=00000003
# WB: pc=01000044 rd=15 data=00000001
# WB: pc=01000054 rd=15 data=00000003
# WB: pc=01000058 rd=15 data=00000002
# WB: pc=0100005c rd=10 data=00000002
# WB: pc=01000060 rd=1 data=01000064
# WB: pc=01000030 rd=2 data=010ffec0
# BR: pc=01000048 taken=1 rs1=15=00000001 rs2=14=00000002 target=01000054
# WB: pc=01000040 rd=14 data=00000002
# WB: pc=01000044 rd=15 data=00000001
# WB: pc=01000054 rd=15 data=00000002
# WB: pc=01000058 rd=15 data=00000001
# WB: pc=0100005c rd=10 data=00000001
# WB: pc=01000060 rd=1 data=01000064
# WB: pc=01000030 rd=2 data=010ffea0
# BR: pc=01000048 taken=0 rs1=15=00000001 rs2=14=00000001 target=01000054
# WB: pc=01000040 rd=14 data=00000001
# WB: pc=01000044 rd=15 data=00000001
# WB: pc=0100004c rd=15 data=00000001
# WB: pc=01000080 rd=10 data=00000001
# WB: pc=01000084 rd=1 data=01000064
# WB: pc=01000088 rd=8 data=00000000
# WB: pc=0100008c rd=2 data=010ffec0
# WB: pc=01000064 rd=8 data=00000001
# WB: pc=01000068 rd=15 data=00000002
# WB: pc=0100006c rd=15 data=00000000
# WB: pc=01000070 rd=10 data=00000000
# WB: pc=01000074 rd=1 data=01000078
# WB: pc=01000030 rd=2 data=010ffea0
# BR: pc=01000048 taken=0 rs1=15=00000001 rs2=14=00000000 target=01000054
# WB: pc=01000040 rd=14 data=00000000
# WB: pc=01000044 rd=15 data=00000001
# WB: pc=0100004c rd=15 data=00000000
# WB: pc=01000080 rd=10 data=00000000
# WB: pc=01000084 rd=1 data=01000078
# WB: pc=01000088 rd=8 data=00000001
# WB: pc=0100008c rd=2 data=010ffec0
# WB: pc=01000078 rd=15 data=00000000
# WB: pc=0100007c rd=15 data=00000001
# WB: pc=01000080 rd=10 data=00000001
# WB: pc=01000084 rd=1 data=01000064
# WB: pc=01000088 rd=8 data=00000000
# WB: pc=0100008c rd=2 data=010ffee0
# WB: pc=01000064 rd=8 data=00000001
# WB: pc=01000068 rd=15 data=00000003
# WB: pc=0100006c rd=15 data=00000001
# WB: pc=01000070 rd=10 data=00000001
# WB: pc=01000074 rd=1 data=01000078
# WB: pc=01000030 rd=2 data=010ffec0
# BR: pc=01000048 taken=0 rs1=15=00000001 rs2=14=00000001 target=01000054
# WB: pc=01000040 rd=14 data=00000001
# WB: pc=01000044 rd=15 data=00000001
# WB: pc=0100004c rd=15 data=00000001
# WB: pc=01000080 rd=10 data=00000001
# WB: pc=01000084 rd=1 data=01000078
# WB: pc=01000088 rd=8 data=00000001
# WB: pc=0100008c rd=2 data=010ffee0
# WB: pc=01000078 rd=15 data=00000001
# WB: pc=0100007c rd=15 data=00000002
# WB: pc=01000080 rd=10 data=00000002
# WB: pc=01000084 rd=1 data=01000064
# WB: pc=01000088 rd=8 data=00000000
# WB: pc=0100008c rd=2 data=010fff00
# WB: pc=01000064 rd=8 data=00000002
# WB: pc=01000068 rd=15 data=00000004
# WB: pc=0100006c rd=15 data=00000002
# WB: pc=01000070 rd=10 data=00000002
# WB: pc=01000074 rd=1 data=01000078
# WB: pc=01000030 rd=2 data=010ffee0
# BR: pc=01000048 taken=1 rs1=15=00000001 rs2=14=00000002 target=01000054
# WB: pc=01000040 rd=14 data=00000002
# WB: pc=01000044 rd=15 data=00000001
# WB: pc=01000054 rd=15 data=00000002
# WB: pc=01000058 rd=15 data=00000001
# WB: pc=0100005c rd=10 data=00000001
# WB: pc=01000060 rd=1 data=01000064
# WB: pc=01000030 rd=2 data=010ffec0
# BR: pc=01000048 taken=0 rs1=15=00000001 rs2=14=00000001 target=01000054
# WB: pc=01000040 rd=14 data=00000001
# WB: pc=01000044 rd=15 data=00000001
# WB: pc=0100004c rd=15 data=00000001
# WB: pc=01000080 rd=10 data=00000001
# WB: pc=01000084 rd=1 data=01000064
# WB: pc=01000088 rd=8 data=00000002
# WB: pc=0100008c rd=2 data=010ffee0
# WB: pc=01000064 rd=8 data=00000001
# WB: pc=01000068 rd=15 data=00000002
# WB: pc=0100006c rd=15 data=00000000
# WB: pc=01000070 rd=10 data=00000000
# WB: pc=01000074 rd=1 data=01000078
# WB: pc=01000030 rd=2 data=010ffec0
# BR: pc=01000048 taken=0 rs1=15=00000001 rs2=14=00000000 target=01000054
# WB: pc=01000040 rd=14 data=00000000
# WB: pc=01000044 rd=15 data=00000001
# WB: pc=0100004c rd=15 data=00000000
# WB: pc=01000080 rd=10 data=00000000
# WB: pc=01000084 rd=1 data=01000078
# WB: pc=01000088 rd=8 data=00000001
# WB: pc=0100008c rd=2 data=010ffee0
# WB: pc=01000078 rd=15 data=00000000
# WB: pc=0100007c rd=15 data=00000001
# WB: pc=01000080 rd=10 data=00000001
# WB: pc=01000084 rd=1 data=01000078
# WB: pc=01000088 rd=8 data=00000002
# WB: pc=0100008c rd=2 data=010fff00
# WB: pc=01000078 rd=15 data=00000001
# WB: pc=0100007c rd=15 data=00000003
# WB: pc=01000080 rd=10 data=00000003
# WB: pc=01000084 rd=1 data=01000064
# WB: pc=01000088 rd=8 data=00000000
# WB: pc=0100008c rd=2 data=010fff20
# WB: pc=01000064 rd=8 data=00000003
# WB: pc=01000068 rd=15 data=00000005
# WB: pc=0100006c rd=15 data=00000003
# WB: pc=01000070 rd=10 data=00000003
# WB: pc=01000074 rd=1 data=01000078
# WB: pc=01000030 rd=2 data=010fff00
# BR: pc=01000048 taken=1 rs1=15=00000001 rs2=14=00000003 target=01000054
# WB: pc=01000040 rd=14 data=00000003
# WB: pc=01000044 rd=15 data=00000001
# WB: pc=01000054 rd=15 data=00000003
# WB: pc=01000058 rd=15 data=00000002
# WB: pc=0100005c rd=10 data=00000002
# WB: pc=01000060 rd=1 data=01000064
# WB: pc=01000030 rd=2 data=010ffee0
# BR: pc=01000048 taken=1 rs1=15=00000001 rs2=14=00000002 target=01000054
# WB: pc=01000040 rd=14 data=00000002
# WB: pc=01000044 rd=15 data=00000001
# WB: pc=01000054 rd=15 data=00000002
# WB: pc=01000058 rd=15 data=00000001
# WB: pc=0100005c rd=10 data=00000001
# WB: pc=01000060 rd=1 data=01000064
# WB: pc=01000030 rd=2 data=010ffec0
# BR: pc=01000048 taken=0 rs1=15=00000001 rs2=14=00000001 target=01000054
# WB: pc=01000040 rd=14 data=00000001
# WB: pc=01000044 rd=15 data=00000001
# WB: pc=0100004c rd=15 data=00000001
# WB: pc=01000080 rd=10 data=00000001
# WB: pc=01000084 rd=1 data=01000064
# WB: pc=01000088 rd=8 data=00000003
# WB: pc=0100008c rd=2 data=010ffee0
# WB: pc=01000064 rd=8 data=00000001
# WB: pc=01000068 rd=15 data=00000002
# WB: pc=0100006c rd=15 data=00000000
# WB: pc=01000070 rd=10 data=00000000
# WB: pc=01000074 rd=1 data=01000078
# WB: pc=01000030 rd=2 data=010ffec0
# BR: pc=01000048 taken=0 rs1=15=00000001 rs2=14=00000000 target=01000054
# WB: pc=01000040 rd=14 data=00000000
# WB: pc=01000044 rd=15 data=00000001
# WB: pc=0100004c rd=15 data=00000000
# WB: pc=01000080 rd=10 data=00000000
# WB: pc=01000084 rd=1 data=01000078
# WB: pc=01000088 rd=8 data=00000001
# WB: pc=0100008c rd=2 data=010ffee0
# WB: pc=01000078 rd=15 data=00000000
# WB: pc=0100007c rd=15 data=00000001
# WB: pc=01000080 rd=10 data=00000001
# WB: pc=01000084 rd=1 data=01000064
# WB: pc=01000088 rd=8 data=00000003
# WB: pc=0100008c rd=2 data=010fff00
# WB: pc=01000064 rd=8 data=00000001
# WB: pc=01000068 rd=15 data=00000003
# WB: pc=0100006c rd=15 data=00000001
# WB: pc=01000070 rd=10 data=00000001
# WB: pc=01000074 rd=1 data=01000078
# WB: pc=01000030 rd=2 data=010ffee0
# BR: pc=01000048 taken=0 rs1=15=00000001 rs2=14=00000001 target=01000054
# WB: pc=01000040 rd=14 data=00000001
# WB: pc=01000044 rd=15 data=00000001
# WB: pc=0100004c rd=15 data=00000001
# WB: pc=01000080 rd=10 data=00000001
# WB: pc=01000084 rd=1 data=01000078
# WB: pc=01000088 rd=8 data=00000001
# WB: pc=0100008c rd=2 data=010fff00
# WB: pc=01000078 rd=15 data=00000001
# WB: pc=0100007c rd=15 data=00000002
# WB: pc=01000080 rd=10 data=00000002
# WB: pc=01000084 rd=1 data=01000078
# WB: pc=01000088 rd=8 data=00000003
# WB: pc=0100008c rd=2 data=010fff20
# WB: pc=01000078 rd=15 data=00000002
# WB: pc=0100007c rd=15 data=00000005
# WB: pc=01000080 rd=10 data=00000005
# WB: pc=01000084 rd=1 data=01000064
# WB: pc=01000088 rd=8 data=00000000
# WB: pc=0100008c rd=2 data=010fff40
# WB: pc=01000064 rd=8 data=00000005
# WB: pc=01000068 rd=15 data=00000006
# WB: pc=0100006c rd=15 data=00000004
# WB: pc=01000070 rd=10 data=00000004
# WB: pc=01000074 rd=1 data=01000078
# WB: pc=01000030 rd=2 data=010fff20
# BR: pc=01000048 taken=1 rs1=15=00000001 rs2=14=00000004 target=01000054
# WB: pc=01000040 rd=14 data=00000004
# WB: pc=01000044 rd=15 data=00000001
# WB: pc=01000054 rd=15 data=00000004
# WB: pc=01000058 rd=15 data=00000003
# WB: pc=0100005c rd=10 data=00000003
# WB: pc=01000060 rd=1 data=01000064
# WB: pc=01000030 rd=2 data=010fff00
# BR: pc=01000048 taken=1 rs1=15=00000001 rs2=14=00000003 target=01000054
# WB: pc=01000040 rd=14 data=00000003
# WB: pc=01000044 rd=15 data=00000001
# WB: pc=01000054 rd=15 data=00000003
# WB: pc=01000058 rd=15 data=00000002
# WB: pc=0100005c rd=10 data=00000002
# WB: pc=01000060 rd=1 data=01000064
# WB: pc=01000030 rd=2 data=010ffee0
# BR: pc=01000048 taken=1 rs1=15=00000001 rs2=14=00000002 target=01000054
# WB: pc=01000040 rd=14 data=00000002
# WB: pc=01000044 rd=15 data=00000001
# WB: pc=01000054 rd=15 data=00000002
# WB: pc=01000058 rd=15 data=00000001
# WB: pc=0100005c rd=10 data=00000001
# WB: pc=01000060 rd=1 data=01000064
# WB: pc=01000030 rd=2 data=010ffec0
# BR: pc=01000048 taken=0 rs1=15=00000001 rs2=14=00000001 target=01000054
# WB: pc=01000040 rd=14 data=00000001
# WB: pc=01000044 rd=15 data=00000001
# WB: pc=0100004c rd=15 data=00000001
# WB: pc=01000080 rd=10 data=00000001
# WB: pc=01000084 rd=1 data=01000064
# WB: pc=01000088 rd=8 data=00000005
# WB: pc=0100008c rd=2 data=010ffee0
# WB: pc=01000064 rd=8 data=00000001
# WB: pc=01000068 rd=15 data=00000002
# WB: pc=0100006c rd=15 data=00000000
# WB: pc=01000070 rd=10 data=00000000
# WB: pc=01000074 rd=1 data=01000078
# WB: pc=01000030 rd=2 data=010ffec0
# BR: pc=01000048 taken=0 rs1=15=00000001 rs2=14=00000000 target=01000054
# WB: pc=01000040 rd=14 data=00000000
# WB: pc=01000044 rd=15 data=00000001
# WB: pc=0100004c rd=15 data=00000000
# WB: pc=01000080 rd=10 data=00000000
# WB: pc=01000084 rd=1 data=01000078
# WB: pc=01000088 rd=8 data=00000001
# WB: pc=0100008c rd=2 data=010ffee0
# WB: pc=01000078 rd=15 data=00000000
# WB: pc=0100007c rd=15 data=00000001
# WB: pc=01000080 rd=10 data=00000001
# WB: pc=01000084 rd=1 data=01000064
# WB: pc=01000088 rd=8 data=00000005
# WB: pc=0100008c rd=2 data=010fff00
# WB: pc=01000064 rd=8 data=00000001
# WB: pc=01000068 rd=15 data=00000003
# WB: pc=0100006c rd=15 data=00000001
# WB: pc=01000070 rd=10 data=00000001
# WB: pc=01000074 rd=1 data=01000078
# WB: pc=01000030 rd=2 data=010ffee0
# BR: pc=01000048 taken=0 rs1=15=00000001 rs2=14=00000001 target=01000054
# WB: pc=01000040 rd=14 data=00000001
# WB: pc=01000044 rd=15 data=00000001
# WB: pc=0100004c rd=15 data=00000001
# WB: pc=01000080 rd=10 data=00000001
# WB: pc=01000084 rd=1 data=01000078
# WB: pc=01000088 rd=8 data=00000001
# WB: pc=0100008c rd=2 data=010fff00
# WB: pc=01000078 rd=15 data=00000001
# WB: pc=0100007c rd=15 data=00000002
# WB: pc=01000080 rd=10 data=00000002
# WB: pc=01000084 rd=1 data=01000064
# WB: pc=01000088 rd=8 data=00000005
# WB: pc=0100008c rd=2 data=010fff20
# WB: pc=01000064 rd=8 data=00000002
# WB: pc=01000068 rd=15 data=00000004
# WB: pc=0100006c rd=15 data=00000002
# WB: pc=01000070 rd=10 data=00000002
# WB: pc=01000074 rd=1 data=01000078
# WB: pc=01000030 rd=2 data=010fff00
# BR: pc=01000048 taken=1 rs1=15=00000001 rs2=14=00000002 target=01000054
# WB: pc=01000040 rd=14 data=00000002
# WB: pc=01000044 rd=15 data=00000001
# WB: pc=01000054 rd=15 data=00000002
# WB: pc=01000058 rd=15 data=00000001
# WB: pc=0100005c rd=10 data=00000001
# WB: pc=01000060 rd=1 data=01000064
# WB: pc=01000030 rd=2 data=010ffee0
# BR: pc=01000048 taken=0 rs1=15=00000001 rs2=14=00000001 target=01000054
# WB: pc=01000040 rd=14 data=00000001
# WB: pc=01000044 rd=15 data=00000001
# WB: pc=0100004c rd=15 data=00000001
# WB: pc=01000080 rd=10 data=00000001
# WB: pc=01000084 rd=1 data=01000064
# WB: pc=01000088 rd=8 data=00000002
# WB: pc=0100008c rd=2 data=010fff00
# WB: pc=01000064 rd=8 data=00000001
# WB: pc=01000068 rd=15 data=00000002
# WB: pc=0100006c rd=15 data=00000000
# WB: pc=01000070 rd=10 data=00000000
# WB: pc=01000074 rd=1 data=01000078
# WB: pc=01000030 rd=2 data=010ffee0
# BR: pc=01000048 taken=0 rs1=15=00000001 rs2=14=00000000 target=01000054
# WB: pc=01000040 rd=14 data=00000000
# WB: pc=01000044 rd=15 data=00000001
# WB: pc=0100004c rd=15 data=00000000
# WB: pc=01000080 rd=10 data=00000000
# WB: pc=01000084 rd=1 data=01000078
# WB: pc=01000088 rd=8 data=00000001
# WB: pc=0100008c rd=2 data=010fff00
# WB: pc=01000078 rd=15 data=00000000
# WB: pc=0100007c rd=15 data=00000001
# WB: pc=01000080 rd=10 data=00000001
# WB: pc=01000084 rd=1 data=01000078
# WB: pc=01000088 rd=8 data=00000002
# WB: pc=0100008c rd=2 data=010fff20
# WB: pc=01000078 rd=15 data=00000001
# WB: pc=0100007c rd=15 data=00000003
# WB: pc=01000080 rd=10 data=00000003
# WB: pc=01000084 rd=1 data=01000078
# WB: pc=01000088 rd=8 data=00000005
# WB: pc=0100008c rd=2 data=010fff40
# WB: pc=01000078 rd=15 data=00000003
# WB: pc=0100007c rd=15 data=00000008
# WB: pc=01000080 rd=10 data=00000008
# WB: pc=01000084 rd=1 data=01000064
# WB: pc=01000088 rd=8 data=00000000
# WB: pc=0100008c rd=2 data=010fff60
# WB: pc=01000064 rd=8 data=00000008
# WB: pc=01000068 rd=15 data=00000007
# WB: pc=0100006c rd=15 data=00000005
# WB: pc=01000070 rd=10 data=00000005
# WB: pc=01000074 rd=1 data=01000078
# WB: pc=01000030 rd=2 data=010fff40
# BR: pc=01000048 taken=1 rs1=15=00000001 rs2=14=00000005 target=01000054
# WB: pc=01000040 rd=14 data=00000005
# WB: pc=01000044 rd=15 data=00000001
# WB: pc=01000054 rd=15 data=00000005
# WB: pc=01000058 rd=15 data=00000004
# WB: pc=0100005c rd=10 data=00000004
# WB: pc=01000060 rd=1 data=01000064
# WB: pc=01000030 rd=2 data=010fff20
# BR: pc=01000048 taken=1 rs1=15=00000001 rs2=14=00000004 target=01000054
# WB: pc=01000040 rd=14 data=00000004
# WB: pc=01000044 rd=15 data=00000001
# WB: pc=01000054 rd=15 data=00000004
# WB: pc=01000058 rd=15 data=00000003
# WB: pc=0100005c rd=10 data=00000003
# WB: pc=01000060 rd=1 data=01000064
# WB: pc=01000030 rd=2 data=010fff00
# BR: pc=01000048 taken=1 rs1=15=00000001 rs2=14=00000003 target=01000054
# WB: pc=01000040 rd=14 data=00000003
# WB: pc=01000044 rd=15 data=00000001
# WB: pc=01000054 rd=15 data=00000003
# WB: pc=01000058 rd=15 data=00000002
# WB: pc=0100005c rd=10 data=00000002
# WB: pc=01000060 rd=1 data=01000064
# WB: pc=01000030 rd=2 data=010ffee0
# BR: pc=01000048 taken=1 rs1=15=00000001 rs2=14=00000002 target=01000054
# WB: pc=01000040 rd=14 data=00000002
# WB: pc=01000044 rd=15 data=00000001
# WB: pc=01000054 rd=15 data=00000002
# WB: pc=01000058 rd=15 data=00000001
# WB: pc=0100005c rd=10 data=00000001
# WB: pc=01000060 rd=1 data=01000064
# WB: pc=01000030 rd=2 data=010ffec0
# BR: pc=01000048 taken=0 rs1=15=00000001 rs2=14=00000001 target=01000054
# WB: pc=01000040 rd=14 data=00000001
# WB: pc=01000044 rd=15 data=00000001
# WB: pc=0100004c rd=15 data=00000001
# WB: pc=01000080 rd=10 data=00000001
# WB: pc=01000084 rd=1 data=01000064
# WB: pc=01000088 rd=8 data=00000008
# WB: pc=0100008c rd=2 data=010ffee0
# WB: pc=01000064 rd=8 data=00000001
# WB: pc=01000068 rd=15 data=00000002
# WB: pc=0100006c rd=15 data=00000000
# WB: pc=01000070 rd=10 data=00000000
# WB: pc=01000074 rd=1 data=01000078
# WB: pc=01000030 rd=2 data=010ffec0
# BR: pc=01000048 taken=0 rs1=15=00000001 rs2=14=00000000 target=01000054
# WB: pc=01000040 rd=14 data=00000000
# WB: pc=01000044 rd=15 data=00000001
# WB: pc=0100004c rd=15 data=00000000
# WB: pc=01000080 rd=10 data=00000000
# WB: pc=01000084 rd=1 data=01000078
# WB: pc=01000088 rd=8 data=00000001
# WB: pc=0100008c rd=2 data=010ffee0
# WB: pc=01000078 rd=15 data=00000000
# WB: pc=0100007c rd=15 data=00000001
# WB: pc=01000080 rd=10 data=00000001
# WB: pc=01000084 rd=1 data=01000064
# WB: pc=01000088 rd=8 data=00000008
# WB: pc=0100008c rd=2 data=010fff00
# WB: pc=01000064 rd=8 data=00000001
# WB: pc=01000068 rd=15 data=00000003
# WB: pc=0100006c rd=15 data=00000001
# WB: pc=01000070 rd=10 data=00000001
# WB: pc=01000074 rd=1 data=01000078
# WB: pc=01000030 rd=2 data=010ffee0
# BR: pc=01000048 taken=0 rs1=15=00000001 rs2=14=00000001 target=01000054
# WB: pc=01000040 rd=14 data=00000001
# WB: pc=01000044 rd=15 data=00000001
# WB: pc=0100004c rd=15 data=00000001
# WB: pc=01000080 rd=10 data=00000001
# WB: pc=01000084 rd=1 data=01000078
# WB: pc=01000088 rd=8 data=00000001
# WB: pc=0100008c rd=2 data=010fff00
# WB: pc=01000078 rd=15 data=00000001
