project/pd5/pd5_test1_func.log
make: Entering directory '/eecs/home/arshia04/EECS-4201-project-arshia04/project/pd5/verif/scripts'
echo Vsim Compilation
Vsim Compilation
mkdir -p /eecs/home/arshia04/EECS-4201-project-arshia04/project/pd5/verif/sim/vsim/test_pd
vlog -work /eecs/home/arshia04/EECS-4201-project-arshia04/project/pd5/work \
	-suppress 7061 \
	-sv \
	+incdir+/eecs/home/arshia04/EECS-4201-project-arshia04/project/pd5/design/code \
	+incdir+/eecs/home/arshia04/EECS-4201-project-arshia04/project/pd5/design/ \
	+incdir+/eecs/home/arshia04/EECS-4201-project-arshia04/project/pd5/verif/tests \
	+define+MEM_PATH=\"/eecs/home/arshia04/EECS-4201-project-arshia04/project/pd5/verif/data/test1.x\" \
	+define+TEST_VECTOR=\"/eecs/home/arshia04/EECS-4201-project-arshia04/project/pd5/verif/data/test_vector.x\" \
	+define+MEM_DEPTH=1048576 \
	+define+GEN_TRACE=0 \
	+define+TRACE_FILE=\"test1.trace\"\
	+define+LINE_COUNT=62 \
	+define+PATTERN_FILE=\"/eecs/home/arshia04/EECS-4201-project-arshia04/project/pd5/verif/data/test1.pattern\" \
	+define+PATTERN_LINE_COUNT=2390 \
	+define+PATTERN_DUMP_FILE=\"test1.dump\" \
	+define+PATTERN_DUMP=0 \
	+define+PATTERN_CHECK=0 \
	+define+VCD_FILE=\"test1.vcd\" \
	+define+TIMEOUT=50000 \
	-stats=none /eecs/home/arshia04/EECS-4201-project-arshia04/project/pd5/design/code/constants.svh /eecs/home/arshia04/EECS-4201-project-arshia04/project/pd5/design/code/memory.sv /eecs/home/arshia04/EECS-4201-project-arshia04/project/pd5/design/code/fetch.sv /eecs/home/arshia04/EECS-4201-project-arshia04/project/pd5/design/code/control.sv /eecs/home/arshia04/EECS-4201-project-arshia04/project/pd5/design/code/branch_control.sv /eecs/home/arshia04/EECS-4201-project-arshia04/project/pd5/design/code/decode.sv /eecs/home/arshia04/EECS-4201-project-arshia04/project/pd5/design/code/igen.sv /eecs/home/arshia04/EECS-4201-project-arshia04/project/pd5/design/code/register_file.sv /eecs/home/arshia04/EECS-4201-project-arshia04/project/pd5/design/code/writeback.sv /eecs/home/arshia04/EECS-4201-project-arshia04/project/pd5/design/code/execute.sv /eecs/home/arshia04/EECS-4201-project-arshia04/project/pd5/design/code/pd5.sv /eecs/home/arshia04/EECS-4201-project-arshia04/project/pd5/verif/tests/clockgen.sv /eecs/home/arshia04/EECS-4201-project-arshia04/project/pd5/design/design_wrapper.sv /eecs/home/arshia04/EECS-4201-project-arshia04/project/pd5/verif/tests/test_pd.sv
Model Technology ModelSim - Intel FPGA Edition vlog 2020.1 Compiler 2020.02 Feb 28 2020
-- Compiling package constants_svh_unit
-- Compiling package memory_sv_unit
-- Compiling module memory
-- Compiling package fetch_sv_unit
-- Compiling module fetch
-- Compiling package control_sv_unit
-- Compiling module control
-- Compiling module branch_control
-- Compiling package decode_sv_unit
-- Compiling module decode
-- Compiling package igen_sv_unit
-- Compiling module igen
-- Compiling module register_file
-- Compiling package writeback_sv_unit
-- Compiling module writeback
-- Compiling package execute_sv_unit
-- Compiling module execute
-- Compiling package pd5_sv_unit
-- Compiling module pd5
-- Compiling module clockgen
-- Compiling module design_wrapper
-- Compiling module top

Top level modules:
	top
rm -f /eecs/home/arshia04/EECS-4201-project-arshia04/project/pd5/verif/scripts/run.macro
echo -e "vcd file \"test1.vcd\"\nvcd add -r /top/* \nrun -all" >> /eecs/home/arshia04/EECS-4201-project-arshia04/project/pd5/verif/scripts/run.macro
echo Vsim Run
Vsim Run
vsim -suppress 3839 -c -do /eecs/home/arshia04/EECS-4201-project-arshia04/project/pd5/verif/scripts/run.macro /eecs/home/arshia04/EECS-4201-project-arshia04/project/pd5/work.top
Reading pref.tcl

# 2020.1

# vsim -suppress 3839 -c -do "/eecs/home/arshia04/EECS-4201-project-arshia04/project/pd5/verif/scripts/run.macro" /eecs/home/arshia04/EECS-4201-project-arshia04/project/pd5/work.top 
# Start time: 18:23:13 on Mar 23,2026
# Loading sv_std.std
# Loading /eecs/home/arshia04/EECS-4201-project-arshia04/project/pd5/work.top
# Loading /eecs/home/arshia04/EECS-4201-project-arshia04/project/pd5/work.clockgen
# Loading /eecs/home/arshia04/EECS-4201-project-arshia04/project/pd5/work.design_wrapper
# Loading /eecs/home/arshia04/EECS-4201-project-arshia04/project/pd5/work.pd5_sv_unit
# Loading /eecs/home/arshia04/EECS-4201-project-arshia04/project/pd5/work.pd5
# Loading /eecs/home/arshia04/EECS-4201-project-arshia04/project/pd5/work.fetch_sv_unit
# Loading /eecs/home/arshia04/EECS-4201-project-arshia04/project/pd5/work.fetch
# Loading /eecs/home/arshia04/EECS-4201-project-arshia04/project/pd5/work.memory_sv_unit
# Loading /eecs/home/arshia04/EECS-4201-project-arshia04/project/pd5/work.memory
# Loading /eecs/home/arshia04/EECS-4201-project-arshia04/project/pd5/work.decode_sv_unit
# Loading /eecs/home/arshia04/EECS-4201-project-arshia04/project/pd5/work.decode
# Loading /eecs/home/arshia04/EECS-4201-project-arshia04/project/pd5/work.igen_sv_unit
# Loading /eecs/home/arshia04/EECS-4201-project-arshia04/project/pd5/work.igen
# Loading /eecs/home/arshia04/EECS-4201-project-arshia04/project/pd5/work.control_sv_unit
# Loading /eecs/home/arshia04/EECS-4201-project-arshia04/project/pd5/work.control
# Loading /eecs/home/arshia04/EECS-4201-project-arshia04/project/pd5/work.register_file
# Loading /eecs/home/arshia04/EECS-4201-project-arshia04/project/pd5/work.branch_control
# Loading /eecs/home/arshia04/EECS-4201-project-arshia04/project/pd5/work.execute_sv_unit
# Loading /eecs/home/arshia04/EECS-4201-project-arshia04/project/pd5/work.execute
# Loading /eecs/home/arshia04/EECS-4201-project-arshia04/project/pd5/work.writeback_sv_unit
# Loading /eecs/home/arshia04/EECS-4201-project-arshia04/project/pd5/work.writeback
# do /eecs/home/arshia04/EECS-4201-project-arshia04/project/pd5/verif/scripts/run.macro
# IMEMORY: Loaded 62 32-bit words from /eecs/home/arshia04/EECS-4201-project-arshia04/project/pd5/verif/data/test1.x
# IMEMORY: Loaded 62 32-bit words from /eecs/home/arshia04/EECS-4201-project-arshia04/project/pd5/verif/data/test1.x
# WB: pc=01000000 rd=2 data=010fffc0
# BR: pc=01000044 taken=1 rs1=15=00000009 rs2=14=00000000 target=01000018
# WB: pc=0100003c rd=14 data=00000000
# WB: pc=01000040 rd=15 data=00000009
# WB: pc=01000018 rd=15 data=00000000
# WB: pc=0100001c rd=15 data=00000000
# WB: pc=01000020 rd=14 data=010ffff0
# WB: pc=01000024 rd=15 data=010ffff0
# WB: pc=01000028 rd=14 data=00000000
# WB: pc=01000030 rd=15 data=00000000
# WB: pc=01000034 rd=15 data=00000001
# BR: pc=01000044 taken=1 rs1=15=00000009 rs2=14=00000001 target=01000018
# WB: pc=0100003c rd=14 data=00000001
# WB: pc=01000040 rd=15 data=00000009
# WB: pc=01000018 rd=15 data=00000001
# WB: pc=0100001c rd=15 data=00000004
# WB: pc=01000020 rd=14 data=010ffff0
# WB: pc=01000024 rd=15 data=010ffff4
# WB: pc=01000028 rd=14 data=00000001
# WB: pc=01000030 rd=15 data=00000001
# WB: pc=01000034 rd=15 data=00000002
# BR: pc=01000044 taken=1 rs1=15=00000009 rs2=14=00000002 target=01000018
# WB: pc=0100003c rd=14 data=00000002
# WB: pc=01000040 rd=15 data=00000009
# WB: pc=01000018 rd=15 data=00000002
# WB: pc=0100001c rd=15 data=00000008
# WB: pc=01000020 rd=14 data=010ffff0
# WB: pc=01000024 rd=15 data=010ffff8
# WB: pc=01000028 rd=14 data=00000002
# WB: pc=01000030 rd=15 data=00000002
# WB: pc=01000034 rd=15 data=00000003
# BR: pc=01000044 taken=1 rs1=15=00000009 rs2=14=00000003 target=01000018
# WB: pc=0100003c rd=14 data=00000003
# WB: pc=01000040 rd=15 data=00000009
# WB: pc=01000018 rd=15 data=00000003
# WB: pc=0100001c rd=15 data=0000000c
# WB: pc=01000020 rd=14 data=010ffff0
# WB: pc=01000024 rd=15 data=010ffffc
# WB: pc=01000028 rd=14 data=00000003
# WB: pc=01000030 rd=15 data=00000003
# WB: pc=01000034 rd=15 data=00000004
# BR: pc=01000044 taken=1 rs1=15=00000009 rs2=14=00000004 target=01000018
# WB: pc=0100003c rd=14 data=00000004
# WB: pc=01000040 rd=15 data=00000009
# WB: pc=01000018 rd=15 data=00000004
# WB: pc=0100001c rd=15 data=00000010
# WB: pc=01000020 rd=14 data=010ffff0
# WB: pc=01000024 rd=15 data=01100000
# WB: pc=01000028 rd=14 data=00000004
# WB: pc=01000030 rd=15 data=00000004
# WB: pc=01000034 rd=15 data=00000005
# BR: pc=01000044 taken=1 rs1=15=00000009 rs2=14=00000005 target=01000018
# WB: pc=0100003c rd=14 data=00000005
# WB: pc=01000040 rd=15 data=00000009
# WB: pc=01000018 rd=15 data=00000005
# WB: pc=0100001c rd=15 data=00000014
# WB: pc=01000020 rd=14 data=010ffff0
# WB: pc=01000024 rd=15 data=01100004
# WB: pc=01000028 rd=14 data=00000005
# WB: pc=01000030 rd=15 data=00000005
# WB: pc=01000034 rd=15 data=00000006
# BR: pc=01000044 taken=1 rs1=15=00000009 rs2=14=00000006 target=01000018
# WB: pc=0100003c rd=14 data=00000006
# WB: pc=01000040 rd=15 data=00000009
# WB: pc=01000018 rd=15 data=00000006
# WB: pc=0100001c rd=15 data=00000018
# WB: pc=01000020 rd=14 data=010ffff0
# WB: pc=01000024 rd=15 data=01100008
# WB: pc=01000028 rd=14 data=00000006
# WB: pc=01000030 rd=15 data=00000006
# WB: pc=01000034 rd=15 data=00000007
# BR: pc=01000044 taken=1 rs1=15=00000009 rs2=14=00000007 target=01000018
# WB: pc=0100003c rd=14 data=00000007
# WB: pc=01000040 rd=15 data=00000009
# WB: pc=01000018 rd=15 data=00000007
# WB: pc=0100001c rd=15 data=0000001c
# WB: pc=01000020 rd=14 data=010ffff0
# WB: pc=01000024 rd=15 data=0110000c
# WB: pc=01000028 rd=14 data=00000007
# WB: pc=01000030 rd=15 data=00000007
# WB: pc=01000034 rd=15 data=00000008
# BR: pc=01000044 taken=1 rs1=15=00000009 rs2=14=00000008 target=01000018
# WB: pc=0100003c rd=14 data=00000008
# WB: pc=01000040 rd=15 data=00000009
# WB: pc=01000018 rd=15 data=00000008
# WB: pc=0100001c rd=15 data=00000020
# WB: pc=01000020 rd=14 data=010ffff0
# WB: pc=01000024 rd=15 data=01100010
# WB: pc=01000028 rd=14 data=00000008
# WB: pc=01000030 rd=15 data=00000008
# WB: pc=01000034 rd=15 data=00000009
# BR: pc=01000044 taken=1 rs1=15=00000009 rs2=14=00000009 target=01000018
# WB: pc=0100003c rd=14 data=00000009
# WB: pc=01000040 rd=15 data=00000009
# WB: pc=01000018 rd=15 data=00000009
# WB: pc=0100001c rd=15 data=00000024
# WB: pc=01000020 rd=14 data=010ffff0
# WB: pc=01000024 rd=15 data=01100014
# WB: pc=01000028 rd=14 data=00000009
# WB: pc=01000030 rd=15 data=00000009
# WB: pc=01000034 rd=15 data=0000000a
# BR: pc=01000044 taken=0 rs1=15=00000009 rs2=14=0000000a target=01000018
# WB: pc=0100003c rd=14 data=0000000a
# WB: pc=01000040 rd=15 data=00000009
# BR: pc=01000084 taken=1 rs1=15=00000009 rs2=14=00000000 target=01000050
# WB: pc=0100007c rd=14 data=00000000
# WB: pc=01000080 rd=15 data=00000009
# WB: pc=01000050 rd=15 data=00000000
# WB: pc=01000054 rd=15 data=00000000
# WB: pc=01000058 rd=14 data=010ffff0
# WB: pc=0100005c rd=15 data=010ffff0
# WB: pc=01000060 rd=15 data=00000000
# WB: pc=01000064 rd=14 data=00000000
# WB: pc=01000068 rd=15 data=00000000
# WB: pc=01000070 rd=15 data=00000000
# WB: pc=01000074 rd=15 data=00000001
# BR: pc=01000084 taken=1 rs1=15=00000009 rs2=14=00000001 target=01000050
# WB: pc=0100007c rd=14 data=00000001
# WB: pc=01000080 rd=15 data=00000009
# WB: pc=01000050 rd=15 data=00000001
# WB: pc=01000054 rd=15 data=00000004
# WB: pc=01000058 rd=14 data=010ffff0
# WB: pc=0100005c rd=15 data=010ffff4
# WB: pc=01000060 rd=15 data=00000001
# WB: pc=01000064 rd=14 data=00000000
# WB: pc=01000068 rd=15 data=00000001
# WB: pc=01000070 rd=15 data=00000001
# WB: pc=01000074 rd=15 data=00000002
# BR: pc=01000084 taken=1 rs1=15=00000009 rs2=14=00000002 target=01000050
# WB: pc=0100007c rd=14 data=00000002
# WB: pc=01000080 rd=15 data=00000009
# WB: pc=01000050 rd=15 data=00000002
# WB: pc=01000054 rd=15 data=00000008
# WB: pc=01000058 rd=14 data=010ffff0
# WB: pc=0100005c rd=15 data=010ffff8
# WB: pc=01000060 rd=15 data=00000002
# WB: pc=01000064 rd=14 data=00000001
# WB: pc=01000068 rd=15 data=00000003
# WB: pc=01000070 rd=15 data=00000002
# WB: pc=01000074 rd=15 data=00000003
# BR: pc=01000084 taken=1 rs1=15=00000009 rs2=14=00000003 target=01000050
# WB: pc=0100007c rd=14 data=00000003
# WB: pc=01000080 rd=15 data=00000009
# WB: pc=01000050 rd=15 data=00000003
# WB: pc=01000054 rd=15 data=0000000c
# WB: pc=01000058 rd=14 data=010ffff0
# WB: pc=0100005c rd=15 data=010ffffc
# WB: pc=01000060 rd=15 data=00000003
# WB: pc=01000064 rd=14 data=00000003
# WB: pc=01000068 rd=15 data=00000006
# WB: pc=01000070 rd=15 data=00000003
# WB: pc=01000074 rd=15 data=00000004
# BR: pc=01000084 taken=1 rs1=15=00000009 rs2=14=00000004 target=01000050
# WB: pc=0100007c rd=14 data=00000004
# WB: pc=01000080 rd=15 data=00000009
# WB: pc=01000050 rd=15 data=00000004
# WB: pc=01000054 rd=15 data=00000010
# WB: pc=01000058 rd=14 data=010ffff0
# WB: pc=0100005c rd=15 data=01100000
# WB: pc=01000060 rd=15 data=00000004
# WB: pc=01000064 rd=14 data=00000006
# WB: pc=01000068 rd=15 data=0000000a
# WB: pc=01000070 rd=15 data=00000004
# WB: pc=01000074 rd=15 data=00000005
# BR: pc=01000084 taken=1 rs1=15=00000009 rs2=14=00000005 target=01000050
# WB: pc=0100007c rd=14 data=00000005
# WB: pc=01000080 rd=15 data=00000009
# WB: pc=01000050 rd=15 data=00000005
# WB: pc=01000054 rd=15 data=00000014
# WB: pc=01000058 rd=14 data=010ffff0
# WB: pc=0100005c rd=15 data=01100004
# WB: pc=01000060 rd=15 data=00000005
# WB: pc=01000064 rd=14 data=0000000a
# WB: pc=01000068 rd=15 data=0000000f
# WB: pc=01000070 rd=15 data=00000005
# WB: pc=01000074 rd=15 data=00000006
# BR: pc=01000084 taken=1 rs1=15=00000009 rs2=14=00000006 target=01000050
# WB: pc=0100007c rd=14 data=00000006
# WB: pc=01000080 rd=15 data=00000009
# WB: pc=01000050 rd=15 data=00000006
# WB: pc=01000054 rd=15 data=00000018
# WB: pc=01000058 rd=14 data=010ffff0
# WB: pc=0100005c rd=15 data=01100008
# WB: pc=01000060 rd=15 data=00000006
# WB: pc=01000064 rd=14 data=0000000f
# WB: pc=01000068 rd=15 data=00000015
# WB: pc=01000070 rd=15 data=00000006
# WB: pc=01000074 rd=15 data=00000007
# BR: pc=01000084 taken=1 rs1=15=00000009 rs2=14=00000007 target=01000050
# WB: pc=0100007c rd=14 data=00000007
# WB: pc=01000080 rd=15 data=00000009
# WB: pc=01000050 rd=15 data=00000007
# WB: pc=01000054 rd=15 data=0000001c
# WB: pc=01000058 rd=14 data=010ffff0
# WB: pc=0100005c rd=15 data=0110000c
# WB: pc=01000060 rd=15 data=00000007
# WB: pc=01000064 rd=14 data=00000015
# WB: pc=01000068 rd=15 data=0000001c
# WB: pc=01000070 rd=15 data=00000007
# WB: pc=01000074 rd=15 data=00000008
# BR: pc=01000084 taken=1 rs1=15=00000009 rs2=14=00000008 target=01000050
# WB: pc=0100007c rd=14 data=00000008
# WB: pc=01000080 rd=15 data=00000009
# WB: pc=01000050 rd=15 data=00000008
# WB: pc=01000054 rd=15 data=00000020
# WB: pc=01000058 rd=14 data=010ffff0
# WB: pc=0100005c rd=15 data=01100010
# WB: pc=01000060 rd=15 data=00000008
# WB: pc=01000064 rd=14 data=0000001c
# WB: pc=01000068 rd=15 data=00000024
# WB: pc=01000070 rd=15 data=00000008
# WB: pc=01000074 rd=15 data=00000009
# BR: pc=01000084 taken=1 rs1=15=00000009 rs2=14=00000009 target=01000050
# WB: pc=0100007c rd=14 data=00000009
# WB: pc=01000080 rd=15 data=00000009
# WB: pc=01000050 rd=15 data=00000009
# WB: pc=01000054 rd=15 data=00000024
# WB: pc=01000058 rd=14 data=010ffff0
# WB: pc=0100005c rd=15 data=01100014
# WB: pc=01000060 rd=15 data=00000009
# WB: pc=01000064 rd=14 data=00000024
# WB: pc=01000068 rd=15 data=0000002d
# WB: pc=01000070 rd=15 data=00000009
# WB: pc=01000074 rd=15 data=0000000a
# BR: pc=01000084 taken=0 rs1=15=00000009 rs2=14=0000000a target=01000050
# WB: pc=0100007c rd=14 data=0000000a
# WB: pc=01000080 rd=15 data=00000009
# WB: pc=01000088 rd=10 data=0000002d
# WB: pc=0100008c rd=1 data=01000090
# WB: pc=010000a4 rd=2 data=010fffa0
# BR: pc=010000b8 taken=0 rs1=14=0000002d rs2=15=0000002d target=010000c8
# WB: pc=010000b0 rd=14 data=0000002d
# WB: pc=010000b4 rd=15 data=0000002d
# WB: pc=010000bc rd=1 data=010000c0
# WB: pc=010000e0 rd=15 data=00000001
# WB: pc=010000e4 rd=10 data=00000001
# WB: pc=010000c0 rd=15 data=00000001
# WB: pc=010000d0 rd=10 data=00000001
# WB: pc=010000d4 rd=1 data=01000090
# WB: pc=010000d8 rd=2 data=010fffc0
# WB: pc=01000090 rd=15 data=00000001
# WB: pc=01000094 rd=10 data=00000001
# WB: pc=01000098 rd=1 data=00000000
# WB: pc=0100009c rd=2 data=01100000
# RESULT: x15=00000001
# ** Note: $finish    : /eecs/home/arshia04/EECS-4201-project-arshia04/project/pd5/design/code/pd5.sv(725)
#    Time: 905 ps  Iteration: 1  Instance: /top/dut/core
# End time: 18:23:13 on Mar 23,2026, Elapsed time: 0:00:00
# Errors: 0, Warnings: 0
make: Leaving directory '/eecs/home/arshia04/EECS-4201-project-arshia04/project/pd5/verif/scripts'
